{
  "kind": "collectionType",
  "connection": "default",
  "collectionName": "course",
  "info": {
    "name": "course"
  },
  "options": {
    "increments": true,
    "timestamps": true
  },
  "attributes": {
    "short_description": {
      "type": "text"
    },
    "position": {
      "type": "integer"
    }
  }
}
